Michael Mullarkey's Blog: Data Distillery Dash Episode 01
…
ts_efg_rec %>% 
  prep(verbose = TRUE) %>% 
  bake(new_data = bref_train)

oper 1 step impute knn [training] 
oper 2 step normalize [training] 
oper 3 step nzv [training] 
The retained training set is ~ 1.75 Mb  in memory.

# A tibble: 5,356 x 41
   name_player    minutes ratio_per pct3p_rate pct_orb pct_drb pct_trb
   <fct>            <dbl>     <dbl>      <dbl>   <dbl>   <dbl>   <dbl>
 1 Tariq Abdul-W -0.126    -0.152     -0.988  -0.0205  -0.277 -0.0132
 2 Shareef Abdur  2.16      1.42      -0.794   0.0646   1.40   1.17  
 3 Ray Allen       1.95      1.52       0.263  -0.344   -0.730 -0.728 
 4 John Amaechi    0.0214   -0.248     -1.12   -0.276   -0.259 -0.326 
 5 Derek Anderson  0.739     0.634     -0.139  -0.285   -0.939 -0.795 
 6 Kenny Anderson  1.28      0.754     -0.0594 -0.421   -1.18  -1.15  
 7 Nick Anderson   0.591    -0.581      1.36   -0.268   -0.329 -0.371 
 8 Chris Anstey   -0.919     0.205     -1.09    0.261    1.36   1.39  
 9 Darrell Armst  1.28      1.25       0.621  -0.387   -1.06  -0.974 
10 Chucky Atkins  -0.0591    0.0384    -0.0743 -0.506   -1.32  -1.31  
#  with 5,346 more rows, and 34 more variables: pct_ast <dbl>,
#   pct_stl <dbl>, pct_blk <dbl>, pct_tov <dbl>, pct_usg <dbl>,
#   ratio_ows <dbl>, ratio_dws <dbl>, ratio_ws <dbl>,
#   ratio_ws_per48 <dbl>, ratio_obpm <dbl>, ratio_dbpm <dbl>,
#   ratio_bpm <dbl>, ratio_vorp <dbl>, count_games_started <dbl>,
#   pct_fg <dbl>, pct_fg3 <dbl>, pct_fg2 <dbl>, minutes_totals <dbl>,
#   fgm_totals <dbl>, fga_totals <dbl>, fg3m_totals <dbl>,
#   fg3a_totals <dbl>, fg2m_totals <dbl>, fg2a_totals <dbl>,
#   orb_totals <dbl>, drb_totals <dbl>, trb_totals <dbl>,
…
base_preds <- map(base_mod_rs, ~{
  
  .x %>% 
    collect_predictions(summarize = TRUE)
  
}) %>% 
  print()

[[1]]
# A tibble: 5,356 x 4
    .row ts_minus_efg .config               .pred
   <int>        <dbl> <chr>                 <dbl>
 1     1      0.051   Preprocessor1_Model1 0.0487
 2     2      0.0700  Preprocessor1_Model1 0.0745
 3     3      0.0540  Preprocessor1_Model1 0.0564
 4     4      0.067   Preprocessor1_Model1 0.0682
 5     5      0.0720  Preprocessor1_Model1 0.0695
 6     6      0.0410  Preprocessor1_Model1 0.0470
 7     7      0.00300 Preprocessor1_Model1 0.0113
 8     8      0.068   Preprocessor1_Model1 0.0556
 9     9      0.0480  Preprocessor1_Model1 0.0353
10    10      0.0270  Preprocessor1_Model1 0.0346
#  with 5,346 more rows

[[2]]
# A tibble: 5,356 x 4
    .row ts_minus_efg .config               .pred
   <int>        <dbl> <chr>                 <dbl>
 1     1      0.051   Preprocessor1_Model1 0.0540
 2     2      0.0700  Preprocessor1_Model1 0.0668
 3     3      0.0540  Preprocessor1_Model1 0.0588
 4     4      0.067   Preprocessor1_Model1 0.0580
 5     5      0.0720  Preprocessor1_Model1 0.0587
 6     6      0.0410  Preprocessor1_Model1 0.0500
 7     7      0.00300 Preprocessor1_Model1 0.0288
 8     8      0.068   Preprocessor1_Model1 0.0564
 9     9      0.0480  Preprocessor1_Model1 0.0566
10    10      0.0270  Preprocessor1_Model1 0.0479
#  with 5,346 more rows
…
