Data Distillery Dash Episode 02
…
# Testing the recipe to make sure it produces data

intv_rec %>% 
  prep(verbose = TRUE) %>% 
  bake(new_data = NULL) # %>% 

oper 1 step rm [training] 
oper 2 step other [training] 
oper 3 step dummy [training] 
oper 4 step nzv [training] 
oper 5 step normalize [training] 
oper 6 step impute knn [training] 
The retained training set is ~ 0.06 Mb  in memory.

# A tibble: 173 x 33
      id sibar1bt0 behandlungsdauer spe_sum_t0 phq_dept0 phq_som_t0
   <int>     <dbl>            <dbl>      <dbl>     <dbl>      <dbl>
 1     2   -0.326             0.805     0.930     2.41        2.79 
 2     3   -1.38              1.14      1.94      2.08        1.33 
 3     6    0.724            -0.866    -1.08      0.0881     -0.725
 4     7   -0.176            -1.03      0.930    -0.0777      0.210
 5     8   -0.0260            3.15     -0.0756   -1.24       -0.538
 6     9   -1.38              2.31      1.94     -0.741      -0.164
 7    10   -2.72              2.31     -1.08      0.752      -0.538
 8    12   -2.87              2.31      0.930     0.420       0.383
 9    13   -0.0260            2.31     -0.0756    2.74        1.14 
10    14   -1.83              2.31     -0.0756    1.25        0.383
# … with 163 more rows, and 27 more variables: phq_stress_t0 <dbl>,
#   gad7t0 <dbl>, ksk12t0 <dbl>, psk12t0 <dbl>, av_n1_t0 <dbl>,
#   av_n2_t0 <dbl>, av_n3_t0 <dbl>, av_n4_t0 <dbl>, av_n5_t0 <dbl>,
#   av_n6_t0 <dbl>, av_n7_t0 <dbl>, av_n8_t0 <dbl>, av_n9_t0 <dbl>,
#   av_n10_t0 <dbl>, av_n11_t0 <dbl>, sibar_risk <dbl>,
#   spe_sum_t3 <dbl>, sibar1at0_X1 <dbl>, sibar1at0_X2 <dbl>,
#   indikation_X1 <dbl>, indikation_X2 <dbl>, indikation_X3 <dbl>,
#   schulab_X1 <dbl>, schulab_X2 <dbl>, schulab_X3 <dbl>,
#   sibar_risk_di_X0 <dbl>, sibar_risk_di_X1 <dbl>
…
# Testing the recipe to make sure it produces data

ctrl_rec %>% 
  prep(verbose = TRUE) %>% 
  bake(new_data = NULL) #%>% 

oper 1 step rm [training] 
oper 2 step other [training] 
oper 3 step dummy [training] 
oper 4 step nzv [training] 
oper 5 step normalize [training] 
oper 6 step impute knn [training] 
The retained training set is ~ 0.06 Mb  in memory.

# A tibble: 192 x 33
      id sibar1bt0 behandlungsdauer spe_sum_t0 phq_dept0 phq_som_t0
   <int>     <dbl>            <dbl>      <dbl>     <dbl>      <dbl>
 1     4   -2.60               1.16     -1.26      1.88      0.313 
 2    11   -2.03               2.64     -0.199     0.481    -0.672 
 3    16   -0.191              1.72      0.863     0.830     1.10  
 4    19   -0.0487             1.72     -0.199     0.133    -0.0813
 5    20    0.802              1.72     -0.199     0.656     1.10  
 6    21    0.0931             1.72      0.863     0.656    -0.869 
 7    22   -1.61               1.72     -0.199     1.70      0.904 
 8    23   -1.61               1.72     -0.199    -0.565    -0.672 
 9    24    0.518              1.72      1.93      0.656     0.313 
10    25   -1.75               1.72      0.863     0.656    -0.278 
# … with 182 more rows, and 27 more variables: phq_stress_t0 <dbl>,
#   gad7t0 <dbl>, ksk12t0 <dbl>, psk12t0 <dbl>, av_n1_t0 <dbl>,
#   av_n2_t0 <dbl>, av_n3_t0 <dbl>, av_n4_t0 <dbl>, av_n5_t0 <dbl>,
#   av_n6_t0 <dbl>, av_n7_t0 <dbl>, av_n8_t0 <dbl>, av_n9_t0 <dbl>,
#   av_n10_t0 <dbl>, av_n11_t0 <dbl>, sibar_risk <dbl>,
#   spe_sum_t3 <dbl>, sibar1at0_X1 <dbl>, sibar1at0_X2 <dbl>,
#   indikation_X1 <dbl>, indikation_X2 <dbl>, indikation_X3 <dbl>,
#   schulab_X1 <dbl>, schulab_X2 <dbl>, schulab_X3 <dbl>,
#   sibar_risk_di_X0 <dbl>, sibar_risk_di_X1 <dbl>
…
