Michael Mullarkey's Blog: Data Distillery Dash Episode 02
…
# Testing the recipe to make sure it produces data

intv_rec %>% 
  prep(verbose = TRUE) %>% 
  bake(new_data = NULL) # %>% 

oper 1 step rm [training] 
oper 2 step other [training] 
oper 3 step dummy [training] 
oper 4 step nzv [training] 
oper 5 step normalize [training] 
oper 6 step impute knn [training] 
The retained training set is ~ 0.06 Mb  in memory.

# A tibble: 173 x 33
      id sibar1bt0 behandlungsdauer spe_sum_t0 phq_dept0 phq_som_t0
   <int>     <dbl>            <dbl>      <dbl>     <dbl>      <dbl>
 1     1   -0.315             0.736      1.86     1.81        1.17 
 2     2   -0.315             0.239      0.862    2.49        2.83 
 3     3   -1.35              1.23       1.86     2.15        1.36 
 4     5    0.576             0.902     -0.132    0.104       0.604
 5     6    0.724            -0.921     -1.13     0.104      -0.716
 6     7   -0.166            -0.921      0.862   -0.0671      0.227
 7     8   -0.0180            3.06      -0.132   -1.26       -0.527
 8     9   -1.35              2.23       1.86    -0.750      -0.150
 9    12   -2.84              2.23       0.862    0.445       0.402
10    13   -0.0180            2.23      -0.132    2.83        1.17 
#  with 163 more rows, and 27 more variables: phq_stress_t0 <dbl>,
#   gad7t0 <dbl>, ksk12t0 <dbl>, psk12t0 <dbl>, av_n1_t0 <dbl>,
#   av_n2_t0 <dbl>, av_n3_t0 <dbl>, av_n4_t0 <dbl>, av_n5_t0 <dbl>,
#   av_n6_t0 <dbl>, av_n7_t0 <dbl>, av_n8_t0 <dbl>, av_n9_t0 <dbl>,
#   av_n10_t0 <dbl>, av_n11_t0 <dbl>, sibar_risk <dbl>,
#   spe_sum_t3 <dbl>, sibar1at0_X1 <dbl>, sibar1at0_X2 <dbl>,
#   indikation_X1 <dbl>, indikation_X2 <dbl>, indikation_X3 <dbl>,
#   schulab_X1 <dbl>, schulab_X2 <dbl>, schulab_X3 <dbl>,
#   sibar_risk_di_X0 <dbl>, sibar_risk_di_X1 <dbl>
…
# Testing the recipe to make sure it produces data

ctrl_rec %>% 
  prep(verbose = TRUE) %>% 
  bake(new_data = NULL) #%>% 

oper 1 step rm [training] 
oper 2 step other [training] 
oper 3 step dummy [training] 
oper 4 step nzv [training] 
oper 5 step normalize [training] 
oper 6 step impute knn [training] 
The retained training set is ~ 0.06 Mb  in memory.

# A tibble: 192 x 33
      id sibar1bt0 behandlungsdauer spe_sum_t0 phq_dept0 phq_som_t0
   <int>     <dbl>            <dbl>      <dbl>     <dbl>      <dbl>
 1     4    -2.49              1.06     -1.24      1.81       0.266
 2    11    -1.93              2.54     -0.172     0.423     -0.700
 3    16    -0.118             1.62      0.894     0.771      1.04 
 4    20     0.858             1.62     -0.172     0.597      1.04 
 5    21     0.161             1.62      0.894     0.597     -0.893
 6    22    -1.51              1.62     -0.172     1.64       0.845
 7    23    -1.51              1.62     -0.172    -0.620     -0.700
 8    24     0.579             1.62      1.96      0.597      0.266
 9    25    -1.65              1.62      0.894     0.597     -0.313
10    31    -0.257             1.62     -1.24     -0.794     -1.42 
#  with 182 more rows, and 27 more variables: phq_stress_t0 <dbl>,
#   gad7t0 <dbl>, ksk12t0 <dbl>, psk12t0 <dbl>, av_n1_t0 <dbl>,
#   av_n2_t0 <dbl>, av_n3_t0 <dbl>, av_n4_t0 <dbl>, av_n5_t0 <dbl>,
#   av_n6_t0 <dbl>, av_n7_t0 <dbl>, av_n8_t0 <dbl>, av_n9_t0 <dbl>,
#   av_n10_t0 <dbl>, av_n11_t0 <dbl>, sibar_risk <dbl>,
#   spe_sum_t3 <dbl>, sibar1at0_X1 <dbl>, sibar1at0_X2 <dbl>,
#   indikation_X1 <dbl>, indikation_X2 <dbl>, indikation_X3 <dbl>,
#   schulab_X1 <dbl>, schulab_X2 <dbl>, schulab_X3 <dbl>,
#   sibar_risk_di_X0 <dbl>, sibar_risk_di_X1 <dbl>
…
